<svg xmlns="http://www.w3.org/2000/svg" width="11.036" height="7.07" viewBox="0 0 11.036 7.07">
  <path id="arrow" d="M.707,4.243h0L0,3.535l.707-.707h0L3.536,0l.706.706L1.915,3.035h9.121v1H1.915L4.243,6.364l-.706.707Z" transform="translate(11.036 7.07) rotate(180)" fill="#fff"/>
</svg>
